<?xml version="1.0" encoding="UTF-8"?>
<CustomTab xmlns="http://soap.sforce.com/2006/04/metadata">
    <label>Find Nearby</label>
    <mobileReady>false</mobileReady>
    <motif>Custom24: Building</motif>
    <page>DTT_FindNearby</page>
</CustomTab>
